RTL/Softmax/TB/transcript
# vsim -do {run -all; quit -f} -c softmax_top_tb 
# Loading sv_std.std
# Loading work.softmax_pkg
# Loading work.softmax_top_tb
# Loading work.bert_softmax
# Loading work.softmax_control_fsm
# Loading work.softmax_max
# Loading work.softmax_subtract
# Loading work.softmax_exp_pla
# Loading work.softmax_accumulator
# Loading work.softmax_reciprocal
# Loading work.softmax_normalize
# run -all 
# ============================================================
#   BERT Softmax Integration Testbench
#   VEC_LEN=64, NUM_VECTORS=10
# ============================================================
# 
# --- Vector 0 ---
#     [0] got=01ff (0.0156) exp=01ff (0.0156) err=0.0000
#     [1] got=01ff (0.0156) exp=01ff (0.0156) err=0.0000
#     [2] got=01ff (0.0156) exp=01ff (0.0156) err=0.0000
#     [3] got=01ff (0.0156) exp=01ff (0.0156) err=0.0000
#     [4] got=01ff (0.0156) exp=01ff (0.0156) err=0.0000
#   Outputs: 64, MSE: 0.000000e+000, MaxErr: 0.0000, Cycles: 148
#   >>> PASS <<<
# --- Vector 1 ---
#     [0] got=6cf4 (0.8512) exp=6cf4 (0.8512) err=0.0000
#     [1] got=0001 (0.0000) exp=0001 (0.0000) err=0.0000
#     [2] got=0001 (0.0000) exp=0001 (0.0000) err=0.0000
#     [3] got=0001 (0.0000) exp=0001 (0.0000) err=0.0000
#     [4] got=0001 (0.0000) exp=0001 (0.0000) err=0.0000
#   Outputs: 64, MSE: 0.000000e+000, MaxErr: 0.0000, Cycles: 148
#   >>> PASS <<<
# --- Vector 2 ---
#     [0] got=0005 (0.0002) exp=0005 (0.0002) err=0.0000
#     [1] got=0006 (0.0002) exp=0006 (0.0002) err=0.0000
#     [2] got=0007 (0.0002) exp=0007 (0.0002) err=0.0000
#     [3] got=0007 (0.0002) exp=0007 (0.0002) err=0.0000
#     [4] got=0008 (0.0002) exp=0008 (0.0002) err=0.0000
#   Outputs: 64, MSE: 0.000000e+000, MaxErr: 0.0000, Cycles: 148
#   >>> PASS <<<
# --- Vector 3 ---
#     [0] got=001d (0.0009) exp=001d (0.0009) err=0.0000
#     [1] got=0b57 (0.0886) exp=0b57 (0.0886) err=0.0000
#     [2] got=01f6 (0.0153) exp=01f6 (0.0153) err=0.0000
#     [3] got=00aa (0.0052) exp=00aa (0.0052) err=0.0000
#     [4] got=0004 (0.0001) exp=0004 (0.0001) err=0.0000
#   Outputs: 64, MSE: 0.000000e+000, MaxErr: 0.0000, Cycles: 148
#   >>> PASS <<<
# --- Vector 4 ---
#     [0] got=000f (0.0005) exp=000f (0.0005) err=0.0000
#     [1] got=007a (0.0037) exp=007a (0.0037) err=0.0000
#     [2] got=0005 (0.0002) exp=0005 (0.0002) err=0.0000
#     [3] got=03cd (0.0297) exp=03cd (0.0297) err=0.0000
#     [4] got=0002 (0.0001) exp=0002 (0.0001) err=0.0000
#   Outputs: 64, MSE: 0.000000e+000, MaxErr: 0.0000, Cycles: 148
#   >>> PASS <<<
# --- Vector 5 ---
#     [0] got=0001 (0.0000) exp=0001 (0.0000) err=0.0000
#     [1] got=0060 (0.0029) exp=0060 (0.0029) err=0.0000
#     [2] got=002c (0.0013) exp=002c (0.0013) err=0.0000
#     [3] got=0009 (0.0003) exp=0009 (0.0003) err=0.0000
#     [4] got=0004 (0.0001) exp=0004 (0.0001) err=0.0000
#   Outputs: 64, MSE: 0.000000e+000, MaxErr: 0.0000, Cycles: 148
#   >>> PASS <<<
# --- Vector 6 ---
#     [0] got=0650 (0.0493) exp=0650 (0.0493) err=0.0000
#     [1] got=00c1 (0.0059) exp=00c1 (0.0059) err=0.0000
#     [2] got=0012 (0.0005) exp=0012 (0.0005) err=0.0000
#     [3] got=0013 (0.0006) exp=0013 (0.0006) err=0.0000
#     [4] got=018d (0.0121) exp=018d (0.0121) err=0.0000
#   Outputs: 64, MSE: 0.000000e+000, MaxErr: 0.0000, Cycles: 148
#   >>> PASS <<<
# --- Vector 7 ---
#     [0] got=0a76 (0.0817) exp=0a76 (0.0817) err=0.0000
#     [1] got=018c (0.0121) exp=018c (0.0121) err=0.0000
#     [2] got=0090 (0.0044) exp=0090 (0.0044) err=0.0000
#     [3] got=0003 (0.0001) exp=0003 (0.0001) err=0.0000
#     [4] got=00c9 (0.0061) exp=00c9 (0.0061) err=0.0000
#   Outputs: 64, MSE: 0.000000e+000, MaxErr: 0.0000, Cycles: 148
#   >>> PASS <<<
# --- Vector 8 ---
#     [0] got=009a (0.0047) exp=009a (0.0047) err=0.0000
#     [1] got=0237 (0.0173) exp=0237 (0.0173) err=0.0000
#     [2] got=0174 (0.0114) exp=0174 (0.0114) err=0.0000
#     [3] got=0011 (0.0005) exp=0011 (0.0005) err=0.0000
#     [4] got=0f32 (0.1187) exp=0f32 (0.1187) err=0.0000
#   Outputs: 64, MSE: 0.000000e+000, MaxErr: 0.0000, Cycles: 148
#   >>> PASS <<<
# --- Vector 9 ---
#     [0] got=017d (0.0116) exp=017d (0.0116) err=0.0000
#     [1] got=028d (0.0199) exp=028d (0.0199) err=0.0000
#     [2] got=000a (0.0003) exp=000a (0.0003) err=0.0000
#     [3] got=0004 (0.0001) exp=0004 (0.0001) err=0.0000
#     [4] got=01b3 (0.0133) exp=01b3 (0.0133) err=0.0000
#   Outputs: 64, MSE: 0.000000e+000, MaxErr: 0.0000, Cycles: 148
#   >>> PASS <<<
# 
# ============================================================
#   Integration Test Summary
# ============================================================
#   Vectors tested:      10
#   Vectors passed:      10
#   Vectors failed:      0
#   Total elements:      640
#   Overall MSE:         0.000000e+000
#   Overall Max Error:   0.000000
# ============================================================
#   >>> ALL VECTORS PASSED <<<
# ** Note: $finish    : softmax_top_tb.sv(237)
#    Time: 22845 ns  Iteration: 1  Instance: /softmax_top_tb
